{
  "kind": "Endpoints",
  "apiVersion": "v1",
  "metadata": {
    "name": "glusterfs-cluster"
  },
  "subsets": [
    {
      "addresses": [
        {
          "ip": "192.168.10.11"
        }
      ],
      "ports": [
        {
          "port": 1
        }
      ]
    },
    {
      "addresses": [
        {
          "ip": "192.168.10.12"
        }
      ],
      "ports": [
        {
          "port": 1
        }
      ]
    }
  ]
}
